\relax 
\citation{ghani2013role}
\citation{dalalah2014extreme}
\citation{akpolat2014enhancing}
\@writefile{toc}{\contentsline {chapter}{\numberline {VI}PENGKAJIAN DAN EVALUASI}{35}\protected@file@percent }
\@writefile{lof}{\addvspace {10\p@ }}
\@writefile{lot}{\addvspace {10\p@ }}
\@writefile{toc}{\contentsline {section}{\numberline {6.1}Lingkungan Pengkajian}{35}\protected@file@percent }
\@writefile{toc}{\contentsline {paragraph}{}{35}\protected@file@percent }
\@writefile{toc}{\contentsline {subsection}{\numberline {6.1.1}Kebutuhan Perangkat Keras}{35}\protected@file@percent }
\@writefile{toc}{\contentsline {paragraph}{}{35}\protected@file@percent }
\@writefile{toc}{\contentsline {subsection}{\numberline {6.1.2}Kebutuhan Perangkat Lunak}{35}\protected@file@percent }
\@writefile{toc}{\contentsline {paragraph}{}{35}\protected@file@percent }
\citation{vos2013evolutionary}
\@writefile{toc}{\contentsline {section}{\numberline {6.2}Pengkajian}{36}\protected@file@percent }
\@writefile{toc}{\contentsline {paragraph}{}{36}\protected@file@percent }
\@writefile{toc}{\contentsline {subsection}{\numberline {6.2.1}\textit  {Planning}}{36}\protected@file@percent }
\@writefile{toc}{\contentsline {paragraph}{}{36}\protected@file@percent }
\@writefile{lot}{\contentsline {table}{\numberline {VI.1}{\ignorespaces Task Pembangunan Website Dhealth}}{36}\protected@file@percent }
\newlabel{task}{{VI.1}{36}}
\@writefile{toc}{\contentsline {paragraph}{}{36}\protected@file@percent }
\@writefile{toc}{\contentsline {subsection}{\numberline {6.2.2}Design}{36}\protected@file@percent }
\@writefile{toc}{\contentsline {paragraph}{}{36}\protected@file@percent }
\@writefile{toc}{\contentsline {subsection}{\numberline {6.2.3}Coding}{36}\protected@file@percent }
\@writefile{toc}{\contentsline {paragraph}{}{36}\protected@file@percent }
\@writefile{lof}{\contentsline {figure}{\numberline {VI.1}{\ignorespaces Halaman Home \textit  {website} d'health}}{37}\protected@file@percent }
\newlabel{HomeImp}{{VI.1}{37}}
\@writefile{lof}{\contentsline {figure}{\numberline {VI.2}{\ignorespaces Halaman Product \textit  {website} d'health}}{37}\protected@file@percent }
\newlabel{ProductImp}{{VI.2}{37}}
\@writefile{toc}{\contentsline {subsection}{\numberline {6.2.4}Testing}{37}\protected@file@percent }
\@writefile{toc}{\contentsline {paragraph}{}{37}\protected@file@percent }
\@writefile{toc}{\contentsline {section}{\numberline {6.3}Evaluasi}{37}\protected@file@percent }
\@writefile{toc}{\contentsline {paragraph}{}{37}\protected@file@percent }
\@writefile{lof}{\contentsline {figure}{\numberline {VI.3}{\ignorespaces Halaman Features \textit  {website} d'health}}{38}\protected@file@percent }
\newlabel{FeaturesImp}{{VI.3}{38}}
\@writefile{lof}{\contentsline {figure}{\numberline {VI.4}{\ignorespaces Halaman Knowledge-Base \textit  {website} d'health}}{38}\protected@file@percent }
\newlabel{PMKImp}{{VI.4}{38}}
\@writefile{lot}{\contentsline {table}{\numberline {VI.2}{\ignorespaces Hasil Black-box Testing}}{38}\protected@file@percent }
\newlabel{btes}{{VI.2}{38}}
\@writefile{toc}{\contentsline {subsection}{\numberline {6.3.1}Lingkungan Pengkajian}{38}\protected@file@percent }
\@writefile{toc}{\contentsline {paragraph}{}{38}\protected@file@percent }
\citation{kaur2016empirical}
\citation{jati2018quality}
\@writefile{lof}{\contentsline {figure}{\numberline {VI.5}{\ignorespaces Halaman Contact \textit  {website} d'health}}{39}\protected@file@percent }
\newlabel{ContactImp}{{VI.5}{39}}
\@writefile{lot}{\contentsline {table}{\numberline {VI.3}{\ignorespaces Perangkat Keras Server}}{39}\protected@file@percent }
\newlabel{envhard}{{VI.3}{39}}
\@writefile{toc}{\contentsline {subsection}{\numberline {6.3.2}Evaluasi dengan GTMetrix}{39}\protected@file@percent }
\@writefile{toc}{\contentsline {paragraph}{}{39}\protected@file@percent }
\@writefile{toc}{\contentsline {subsection}{\numberline {6.3.3}Evaluasi dengan WAPT}{39}\protected@file@percent }
\@writefile{toc}{\contentsline {paragraph}{}{39}\protected@file@percent }
\@writefile{lof}{\contentsline {figure}{\numberline {VI.6}{\ignorespaces \textit  {website} d'health tanpa \textit  {microservices}}}{40}\protected@file@percent }
\newlabel{FullSebelum}{{VI.6}{40}}
\@writefile{lof}{\contentsline {figure}{\numberline {VI.7}{\ignorespaces \textit  {website} d'health dengan \textit  {microservices}}}{40}\protected@file@percent }
\newlabel{FullSesudah}{{VI.7}{40}}
\@writefile{lof}{\contentsline {figure}{\numberline {VI.8}{\ignorespaces \textit  {website} d'health \textit  {PageSpeed scores}}}{41}\protected@file@percent }
\newlabel{Detail1}{{VI.8}{41}}
\@writefile{lof}{\contentsline {figure}{\numberline {VI.9}{\ignorespaces \textit  {website} d'health \textit  {YSlow Scores}}}{41}\protected@file@percent }
\newlabel{Detail2}{{VI.9}{41}}
\@writefile{lof}{\contentsline {figure}{\numberline {VI.10}{\ignorespaces \textit  {website} d'health \textit  {Loaded Pages Speed}}}{41}\protected@file@percent }
\newlabel{Detail3}{{VI.10}{41}}
\@writefile{lof}{\contentsline {figure}{\numberline {VI.11}{\ignorespaces Hasil Pengujian \textit  {stress testing} \textit  {website} d'health tanpa \textit  {microservices}}}{41}\protected@file@percent }
\newlabel{WAPTSUMB}{{VI.11}{41}}
\@writefile{lof}{\contentsline {figure}{\numberline {VI.12}{\ignorespaces Hasil Pengujian \textit  {stress testing} \textit  {website} d'health dengan \textit  {microservices}}}{41}\protected@file@percent }
\newlabel{WAPTSUMA}{{VI.12}{41}}
\@setckpt{section/chapter6}{
\setcounter{page}{42}
\setcounter{equation}{0}
\setcounter{enumi}{5}
\setcounter{enumii}{0}
\setcounter{enumiii}{0}
\setcounter{enumiv}{0}
\setcounter{footnote}{0}
\setcounter{mpfootnote}{0}
\setcounter{part}{0}
\setcounter{chapter}{6}
\setcounter{section}{3}
\setcounter{subsection}{3}
\setcounter{subsubsection}{0}
\setcounter{paragraph}{0}
\setcounter{subparagraph}{0}
\setcounter{figure}{12}
\setcounter{table}{3}
}
